The Chris Paul Effect - Scottie Spinazola's website
…
During the beginning stages of this article Paul decided that it was time for him to climb the ladder of the all-time assist leaders boards.

alltimeastleader <- read_csv("Career_all_time_leader_ast - Sheet1.csv")

## 
## ── Column specification ────────────────────────────────────────────────────────
## cols(
##   Rank = col_double(),
##   Player = col_character(),
##   AST = col_double()
## )

alltimeastleader

## # A tibble: 250 x 3
##     Rank Player             AST
##    <dbl> <chr>            <dbl>
##  1     1 John Stockton*   15806
##  2     2 Jason Kidd*      12091
##  3     3 Steve Nash*      10335
##  4     4 Mark Jackson     10334
##  5     5 *Chris Paul*     10145
##  6     6 Magic Johnson*   10141
##  7     7 Oscar Robertson*  9887
##  8     8 *LeBron James*    9669
##  9     9 Isiah Thomas*     9061
## 10    10 Gary Payton*      8966
## # … with 240 more rows
…
